…
``` r
table_with_price_difference <- steam_games %>%
  mutate(price_difference = original_price - discount_price) %>%
  select(id, original_price,discount_price,price_difference)

table_with_price_difference
```

    ## # A tibble: 40,833 x 4
    ##       id original_price discount_price price_difference
    ##    <dbl>          <dbl>          <dbl>            <dbl>
    ##  1     1           20.0           15.0             5   
    ##  2     2           30.0           NA              NA   
    ##  3     3           40.0           NA              NA   
    ##  4     4           45.0           NA              NA   
    ##  5     5            0             NA              NA   
    ##  6     6           NA             35.2            NA   
    ##  7     7           60.0           70.4           -10.4 
    ##  8     8           15.0           17.6            -2.59
    ##  9     9           30.0           NA              NA   
    ## 10    10           50.0           NA              NA   
    ## # ... with 40,823 more rows
…
