…
<!--------------------------- Start your work below --------------------------->

Since my data has more than 8 variables, I picked 8 as shown below.

``` r
dataset3 <- dataset2_with_review_category %>%
  select(-id, -developer, -genre, -achievements)

dataset3
```

    ## # A tibble: 40,833 x 8
    ##    name        types release_date original_price discount_price reviews_percent~
    ##    <chr>       <chr> <chr>                 <dbl>          <dbl>            <dbl>
    ##  1 DOOM        app   May 12, 2016           20.0           15.0               92
    ##  2 PLAYERUNKN~ app   Dec 21, 2017           30.0           NA                 49
    ##  3 BATTLETECH  app   Apr 24, 2018           40.0           NA                 71
    ##  4 DayZ        app   Dec 13, 2018           45.0           NA                 61
    ##  5 EVE Online  app   May 6, 2003             0             NA                 74
    ##  6 Grand Thef~ bund~ NaN                    NA             35.2               NA
    ##  7 Devil May ~ app   Mar 7, 2019            60.0           70.4               92
    ##  8 Human: Fal~ app   Jul 22, 2016           15.0           17.6               91
    ##  9 They Are B~ app   Dec 12, 2017           30.0           NA                 85
    ## 10 Warhammer:~ app   May 31, 2019           50.0           NA                 44
    ## # ... with 40,823 more rows, and 2 more variables: total_reviews <dbl>,
    ## #   review_category <chr>
…
If your data is untidy, then tidy it! Then, untidy it back to it’s
original state.

Be sure to explain your reasoning for this task. Show us the “before”
and “after”.

<!--------------------------- Start your work below --------------------------->

To tidy the dataset:

``` r
dataset3 #before tidy
```

    ## # A tibble: 40,833 x 8
    ##    name        types release_date original_price discount_price reviews_percent~
    ##    <chr>       <chr> <chr>                 <dbl>          <dbl>            <dbl>
    ##  1 DOOM        app   May 12, 2016           20.0           15.0               92
    ##  2 PLAYERUNKN~ app   Dec 21, 2017           30.0           NA                 49
    ##  3 BATTLETECH  app   Apr 24, 2018           40.0           NA                 71
    ##  4 DayZ        app   Dec 13, 2018           45.0           NA                 61
    ##  5 EVE Online  app   May 6, 2003             0             NA                 74
    ##  6 Grand Thef~ bund~ NaN                    NA             35.2               NA
    ##  7 Devil May ~ app   Mar 7, 2019            60.0           70.4               92
    ##  8 Human: Fal~ app   Jul 22, 2016           15.0           17.6               91
    ##  9 They Are B~ app   Dec 12, 2017           30.0           NA                 85
    ## 10 Warhammer:~ app   May 31, 2019           50.0           NA                 44
    ## # ... with 40,823 more rows, and 2 more variables: total_reviews <dbl>,
    ## #   review_category <chr>
…
    ## Warning: Expected 2 pieces. Additional pieces discarded in 170 rows [14357,
    ## 30949, 31174, 31230, 31237, 31272, 31429, 31469, 31476, 31729, 31763, 31818,
    ## 32326, 32332, 32606, 32713, 32745, 32785, 32868, 32901, ...].

    ## Warning: Expected 2 pieces. Missing pieces filled with `NA` in 3771 rows [6,
    ## 16, 26, 40, 45, 58, 64, 67, 69, 75, 82, 87, 103, 106, 107, 115, 120, 134, 136,
    ## 146, ...].

``` r
#I did not drop NA values because I think it is important to keep them there, as it shows information such as the release date or the original price are not available for those specific games. 

tidy1 #after tidy
```

    ## # A tibble: 40,833 x 10
    ##    name              types release_month release_day release_year original_price
    ##    <chr>             <chr> <chr>         <chr>       <chr>                 <dbl>
    ##  1 DOOM              app   May           12          " 2016"                20.0
    ##  2 PLAYERUNKNOWN'S ~ app   Dec           21          " 2017"                30.0
    ##  3 BATTLETECH        app   Apr           24          " 2018"                40.0
    ##  4 DayZ              app   Dec           13          " 2018"                45.0
    ##  5 EVE Online        app   May           6           " 2003"                 0  
    ##  6 Grand Theft Auto~ bund~ NaN           <NA>         <NA>                  NA  
    ##  7 Devil May Cry 5   app   Mar           7           " 2019"                60.0
    ##  8 Human: Fall Flat  app   Jul           22          " 2016"                15.0
    ##  9 They Are Billions app   Dec           12          " 2017"                30.0
    ## 10 Warhammer: Chaos~ app   May           31          " 2019"                50.0
    ## # ... with 40,823 more rows, and 4 more variables: discount_price <dbl>,
    ## #   reviews_percentage <dbl>, total_reviews <dbl>, review_category <chr>

To untidy the dataset back:

``` r
tidy1 #before untidy back
```

    ## # A tibble: 40,833 x 10
    ##    name              types release_month release_day release_year original_price
    ##    <chr>             <chr> <chr>         <chr>       <chr>                 <dbl>
    ##  1 DOOM              app   May           12          " 2016"                20.0
    ##  2 PLAYERUNKNOWN'S ~ app   Dec           21          " 2017"                30.0
    ##  3 BATTLETECH        app   Apr           24          " 2018"                40.0
    ##  4 DayZ              app   Dec           13          " 2018"                45.0
    ##  5 EVE Online        app   May           6           " 2003"                 0  
    ##  6 Grand Theft Auto~ bund~ NaN           <NA>         <NA>                  NA  
    ##  7 Devil May Cry 5   app   Mar           7           " 2019"                60.0
    ##  8 Human: Fall Flat  app   Jul           22          " 2016"                15.0
    ##  9 They Are Billions app   Dec           12          " 2017"                30.0
    ## 10 Warhammer: Chaos~ app   May           31          " 2019"                50.0
    ## # ... with 40,823 more rows, and 4 more variables: discount_price <dbl>,
    ## #   reviews_percentage <dbl>, total_reviews <dbl>, review_category <chr>

``` r
untidy_back <- tidy1 %>%  
  unite(col = "date", c(release_month, release_day), sep = " ") %>%
  unite(col= "release_date", c(date, release_year), sep =",")

untidy_back #after untidy back
```

    ## # A tibble: 40,833 x 8
    ##    name        types release_date original_price discount_price reviews_percent~
    ##    <chr>       <chr> <chr>                 <dbl>          <dbl>            <dbl>
    ##  1 DOOM        app   May 12, 2016           20.0           15.0               92
    ##  2 PLAYERUNKN~ app   Dec 21, 2017           30.0           NA                 49
    ##  3 BATTLETECH  app   Apr 24, 2018           40.0           NA                 71
    ##  4 DayZ        app   Dec 13, 2018           45.0           NA                 61
    ##  5 EVE Online  app   May 6, 2003             0             NA                 74
    ##  6 Grand Thef~ bund~ NaN NA,NA              NA             35.2               NA
    ##  7 Devil May ~ app   Mar 7, 2019            60.0           70.4               92
    ##  8 Human: Fal~ app   Jul 22, 2016           15.0           17.6               91
    ##  9 They Are B~ app   Dec 12, 2017           30.0           NA                 85
    ## 10 Warhammer:~ app   May 31, 2019           50.0           NA                 44
    ## # ... with 40,823 more rows, and 2 more variables: total_reviews <dbl>,
    ## #   review_category <chr>
…
